<?xml version="1.0" encoding="utf-8"?>
<!-- Generator: Adobe Illustrator 27.0.1, SVG Export Plug-In . SVG Version: 6.00 Build 0)  -->
<svg version="1.1" id="Logo" xmlns="http://www.w3.org/2000/svg" xmlns:xlink="http://www.w3.org/1999/xlink" x="0px" y="0px"
	 viewBox="0 0 1869.6 838.5" style="enable-background:new 0 0 1869.6 838.5;" xml:space="preserve">
<style type="text/css">
	.st0{fill-rule:evenodd;clip-rule:evenodd;fill:#751DFF;}
</style>
<g>
	<path class="st0" d="M1600.5,697.4H269.1c-69.2,0-125.3-56.1-125.3-125.3V266.4c0-69.2,56.1-125.3,125.3-125.3h1331.4
		c69.2,0,125.3,56.1,125.3,125.3v305.7C1725.8,641.3,1669.7,697.4,1600.5,697.4z"/>
	<g>
		<g>
			<defs>
				<path id="SVGID_1_" d="M1121.2,389.1c-23.9,0-43.9,17.6-43.9,49.8c0,31.9,20,50.2,43.9,50.2c24.3,0,43.6-17.9,43.6-50.2
					C1164.8,406.6,1145.5,389.1,1121.2,389.1z M778.8,448.2l-39.6,6.1c-12.1,1.8-21.8,8.6-21.8,22.2c0,10.4,7.5,20.4,22.9,20.4
					c20,0,38.6-9.7,38.6-40.9V448.2z M653.1,267.9v259.5h-47.5V267.9H653.1z M439.6,321.9c26.3-26.4,69-26.4,95.4,0
					c26.3,26.4,26.2,69.2-0.1,95.6l-1.1,1.1L430.2,522.5c-10.4,10.5-27.5,10.5-38,0l0.6,0.5L281.6,411.4
					c-10.4-10.5-10.4-27.6,0-38.1l0.7-0.7c10.5-9.8,27.1-9.6,37.3,0.7l89.2,89.5c0,0,2.4,2.5,4.9,0l82-82.3l8.1-8.2
					c5.4-5.4,5.5-13.8,0.1-19.3c-5.4-5.4-14.2-5.4-19.6,0l-7.9,8.2l-45.1,45.3c-10.4,10.5-27.5,10.5-38,0l-54-54.2
					c-10.4-10.5-10.4-27.6,0-38.1l0.7-0.7c10.5-9.8,27.1-9.6,37.3,0.7l32.5,33.2c0,0,2.5,1.8,4.3,0L439.6,321.9z M1078,267.9v102.5
					c7.9-12.5,27.1-24,53.2-24c51.4,0,81.1,39.8,81.1,92.1c0,53.4-32.9,93.2-82.8,93.2c-24.3,0-42.8-10.8-52.1-25.8v21.5h-46.1
					V267.9H1078z M1274.8,351.1v101.8c0,19.7,10,35.5,32.1,35.5c21.1,0,33.2-14.3,33.2-34.8V351.1h47.5v144.4
					c0,13.6,1.1,25.8,1.8,31.9H1344c-0.7-3.6-1.4-11.8-1.4-19c-9.6,16.5-30,23.7-48.6,23.7c-42.5,0-66.8-31.2-66.8-69.5V351.1
					H1274.8z M748.8,345.7c55.7,0,76.4,31.5,76.4,67v86.7c0,9.3,1.1,21.9,2.1,28h-43.6c-1.1-4.7-1.8-14.3-1.8-21.1
					c-8.9,14-25.7,26.2-51.8,26.2c-37.5,0-60.3-25.4-60.3-53c0-31.5,23.2-49.1,52.5-53.4l43.2-6.4c10-1.4,13.2-6.5,13.2-12.5
					c0-12.5-9.6-22.9-29.6-22.9c-20.7,0-32.1,13.3-33.6,28.7l-42.1-9C676.3,376.2,701.7,345.7,748.8,345.7z M1455.1,351.1
					l46.8,103.2l43.2-103.2h50.7L1485.4,597h-50.3l41.4-91.8l-74.6-154.1H1455.1z M877.7,351.1l46.8,103.2l43.2-103.2h50.7L908,597
					h-50.3l41.4-91.8l-74.6-154.1H877.7z"/>
			</defs>
			<use xlink:href="#SVGID_1_"  style="overflow:visible;fill-rule:evenodd;clip-rule:evenodd;fill:#FFFFFF;"/>
			<clipPath id="SVGID_00000099662161248060821460000015630481830558872963_">
				<use xlink:href="#SVGID_1_"  style="overflow:visible;"/>
			</clipPath>
		</g>
	</g>
</g>
</svg>
